min = 
0.04525698499999997
max = 
0.17172642599999977
min = 
0.03761181899999855
max = 
0.10204738000000013
min = 
0.03703217300000006
max = 
0.07317128300000064
min = 
0.03807194500000577
max = 
0.07380119799999818
min = 
0.038073484000001656
max = 
0.1113350470000043
